Pipelining/pipe.vcd
$date
    Mar 19, 2022  11:00:24
$end
$version
    TOOL:	ncsim(64)	15.20-s051
$end
$timescale
    1 ns
$end

$scope module pipe_tb $end
$var parameter 32 !    N  $end
$var wire     10 "    F [9:0] $end
$var reg      10 #    A [9:0] $end
$var reg      10 $    B [9:0] $end
$var reg      10 %    C [9:0] $end
$var reg      10 &    D [9:0] $end
$var reg       1 '    clk  $end

$scope module mypipe $end
$var parameter 32 (    N  $end
$var wire     10 )    A [9:0] $end
$var wire     10 *    B [9:0] $end
$var wire     10 +    C [9:0] $end
$var wire     10 ,    D [9:0] $end
$var wire      1 -    clk  $end
$var wire     10 "    F [9:0] $end
$var reg      10 .    L12_x1 [9:0] $end
$var reg      10 /    L12_x2 [9:0] $end
$var reg      10 0    L12_D [9:0] $end
$var reg      10 1    L23_x3 [9:0] $end
$var reg      10 2    L23_D [9:0] $end
$var reg      10 3    L34_F [9:0] $end
$upscope $end

$upscope $end

$enddefinitions $end
$dumpvars
b1010 (
b1010 !
bx "
bx #
bx $
bx %
bx &
0'
bx )
bx *
bx +
bx ,
0-
bx .
bx /
bx 0
bx 1
bx 2
bx 3
$end
#5
b1010 #
b1100 $
b110 %
b11 &
b11 ,
b110 +
b1100 *
b1010 )
#10
1'
1-
b11 0
#14
b10110 .
b11 /
#20
0'
0-
#25
b1010 $
b101 %
b101 +
b1010 *
#30
1'
1-
b11 2
#34
b11001 1
b10100 .
b10 /
#40
0'
0-
#45
b10100 #
b1011 $
b1 %
b100 &
b100 ,
b1 +
b1011 *
b10100 )
#50
1'
1-
b100 0
#54
b10110 1
b11111 .
b1111111101 /
#56
b1001011 3
b1001011 "
#60
0'
0-
#65
b1111 #
b1010 $
b1000 %
b10 &
b10 ,
b1000 +
b1010 *
b1111 )
#70
1'
1-
b100 2
b10 0
#74
b11100 1
b11001 .
b110 /
#76
b1000010 3
b1000010 "
#80
0'
0-
#90
1'
1-
b10 2
#94
b11111 1
#96
b1110000 3
b1110000 "
#100
0'
0-
#110
1'
1-
#116
b111110 3
b111110 "
